         run       event       nTopo   nIdTracks       nJets      nMuons       nElec       nPhot
      330470  1183722158           1           0           0           0           0           0
      330470  1183722342         394         429          20           0           2          15
      330470  1183727953         532         595          13           4           6          24
      330470  1183732647         467         483          12           1           8          19
      330470  1183733040         381         293           6           1           5          11
      330470  1183734651         361         375          14           3           5          18
      330470  1183735332         406         396           9           1           5          11
      330470  1183736475         741         723          15           2           2          23
      330470  1183738728           1           0           0           0           0           0
      330470  1183738949         368         443           9           1           5          10
      330470  1183742489         152         126           2           1           1           1
      330470  1183743040         285         313           5           0           3           5
      330470  1183746343         492         504          14           0           3          16
      330470  1183746710           6           0           0           0           0           0
      330470  1183751782         239         240           5           0           0           6
      330470  1183752624         347         369           8           3           5          14
      330470  1183753006         357         396          11           3           4          12
      330470  1183754806         470         427          14           0           3          17
      330470  1183769295         342         335           8           1           0           6
      330470  1183769939         348         353          11           3           8          11
      330470  1183773832         307         204           7           0           2          13
      330470  1183775209          57           0           0           0           0           0
      330470  1183787124         431         381          11           2           3          17
      330470  1183787946         321         325           5           1           2           9
      330470  1183795329         458         345          19           0           4          13
